…
## The soap data (some)


```r
soap
```

```
## # A tibble: 27 x 4
##     case scrap speed line 
##    <dbl> <dbl> <dbl> <chr>
##  1     1   218   100 a    
##  2     2   248   125 a    
##  3     3   360   220 a    
##  4     4   351   205 a    
##  5     5   470   300 a    
##  6     6   394   255 a    
##  7     7   332   225 a    
##  8     8   321   175 a    
##  9     9   410   270 a    
## 10    10   260   170 a    
## # … with 17 more rows
```
…
## The data (some)


```r
athletes
```

```
## # A tibble: 202 x 13
##    Sex    Sport    RCC   WCC    Hc    Hg  Ferr   BMI
##    <chr>  <chr>  <dbl> <dbl> <dbl> <dbl> <dbl> <dbl>
##  1 female Netba…  4.56  13.3  42.2  13.6    20  19.2
##  2 female Netba…  4.15   6    38    12.7    59  21.2
##  3 female Netba…  4.16   7.6  37.5  12.3    22  21.4
##  4 female Netba…  4.32   6.4  37.7  12.3    30  21.0
##  5 female Netba…  4.06   5.8  38.7  12.8    78  21.8
##  6 female Netba…  4.12   6.1  36.6  11.8    21  21.4
##  7 female Netba…  4.17   5    37.4  12.7   109  21.5
##  8 female Netba…  3.8    6.6  36.5  12.4   102  24.4
##  9 female Netba…  3.96   5.5  36.3  12.4    71  22.6
## 10 female Netba…  4.44   9.7  41.4  14.1    64  22.8
## # … with 192 more rows, and 5 more variables:
## #   SSF <dbl>, `%Bfat` <dbl>, LBM <dbl>, Ht <dbl>,
## #   Wt <dbl>
```
…
## The data (some) 


```r
kids
```

```
## # A tibble: 44 x 2
##    group score
##    <chr> <dbl>
##  1 t        24
##  2 t        61
##  3 t        59
##  4 t        46
##  5 t        43
##  6 t        44
##  7 t        52
##  8 t        43
##  9 t        58
## 10 t        67
## # … with 34 more rows
```
…
- what makes the columns-to-be-gathered different, then
- what makes them the same, then
- the columns to gather, then (optionally)
- get rid of the missing values.

## Results (some)


```r
tb2
```

```
## # A tibble: 35,750 x 4
##    iso2   year genage  freq
##    <chr> <dbl> <chr>  <dbl>
##  1 AD     2005 m04        0
##  2 AD     2006 m04        0
##  3 AD     2008 m04        0
##  4 AE     2006 m04        0
##  5 AE     2007 m04        0
##  6 AE     2008 m04        0
##  7 AG     2007 m04        0
##  8 AL     2005 m04        0
##  9 AL     2006 m04        1
## 10 AL     2007 m04        0
## # … with 35,740 more rows
```
…
```r
tb2 %>% separate(genage, c("gender", "age"), 1) -> tb3
```

## Tidied tuberculosis data (some)


```r
tb3
```

```
## # A tibble: 35,750 x 5
##    iso2   year gender age    freq
##    <chr> <dbl> <chr>  <chr> <dbl>
##  1 AD     2005 m      04        0
##  2 AD     2006 m      04        0
##  3 AD     2008 m      04        0
##  4 AE     2006 m      04        0
##  5 AE     2007 m      04        0
##  6 AE     2008 m      04        0
##  7 AG     2007 m      04        0
##  8 AL     2005 m      04        0
##  9 AL     2006 m      04        1
## 10 AL     2007 m      04        0
## # … with 35,740 more rows
```
…
```
## See spec(...) for full column specifications.
```

## The data (some)


```r
weather
```

```
## # A tibble: 22 x 35
##    id     year month element    d1    d2    d3    d4
##    <chr> <dbl> <dbl> <chr>   <dbl> <dbl> <dbl> <dbl>
##  1 MX17…  2010     1 tmax       NA  NA    NA      NA
##  2 MX17…  2010     1 tmin       NA  NA    NA      NA
##  3 MX17…  2010     2 tmax       NA  27.3  24.1    NA
##  4 MX17…  2010     2 tmin       NA  14.4  14.4    NA
##  5 MX17…  2010     3 tmax       NA  NA    NA      NA
##  6 MX17…  2010     3 tmin       NA  NA    NA      NA
##  7 MX17…  2010     4 tmax       NA  NA    NA      NA
##  8 MX17…  2010     4 tmin       NA  NA    NA      NA
##  9 MX17…  2010     5 tmax       NA  NA    NA      NA
## 10 MX17…  2010     5 tmin       NA  NA    NA      NA
## # … with 12 more rows, and 27 more variables:
## #   d5 <dbl>, d6 <dbl>, d7 <dbl>, d8 <dbl>,
## #   d9 <lgl>, d10 <dbl>, d11 <dbl>, d12 <lgl>,
## #   d13 <dbl>, d14 <dbl>, d15 <dbl>, d16 <dbl>,
## #   d17 <dbl>, d18 <lgl>, d19 <lgl>, d20 <lgl>,
## #   d21 <lgl>, d22 <lgl>, d23 <dbl>, d24 <lgl>,
## #   d25 <dbl>, d26 <dbl>, d27 <dbl>, d28 <dbl>,
## #   d29 <dbl>, d30 <dbl>, d31 <dbl>
```
…
```r
weather %>% gather(day, temperature, d1:d31, na.rm = T) -> d
```

## So far


```r
d
```

```
## # A tibble: 66 x 6
##    id       year month element day   temperature
##    <chr>   <dbl> <dbl> <chr>   <chr>       <dbl>
##  1 MX17004  2010    12 tmax    d1           29.9
##  2 MX17004  2010    12 tmin    d1           13.8
##  3 MX17004  2010     2 tmax    d2           27.3
##  4 MX17004  2010     2 tmin    d2           14.4
##  5 MX17004  2010    11 tmax    d2           31.3
##  6 MX17004  2010    11 tmin    d2           16.3
##  7 MX17004  2010     2 tmax    d3           24.1
##  8 MX17004  2010     2 tmin    d3           14.4
##  9 MX17004  2010     7 tmax    d3           28.6
## 10 MX17004  2010     7 tmin    d3           17.5
## # … with 56 more rows
```
…
```r
weather %>%
  gather(day, temperature, d1:d31, na.rm = T) %>%
  spread(element, temperature) -> d
```

## So far


```r
d
```

```
## # A tibble: 33 x 6
##    id       year month day    tmax  tmin
##    <chr>   <dbl> <dbl> <chr> <dbl> <dbl>
##  1 MX17004  2010     1 d30    27.8  14.5
##  2 MX17004  2010     2 d11    29.7  13.4
##  3 MX17004  2010     2 d2     27.3  14.4
##  4 MX17004  2010     2 d23    29.9  10.7
##  5 MX17004  2010     2 d3     24.1  14.4
##  6 MX17004  2010     3 d10    34.5  16.8
##  7 MX17004  2010     3 d16    31.1  17.6
##  8 MX17004  2010     3 d5     32.1  14.2
##  9 MX17004  2010     4 d27    36.3  16.7
## 10 MX17004  2010     5 d27    33.2  18.2
## # … with 23 more rows
```
…
## So far


```r
d
```

```
## # A tibble: 33 x 5
##     year month   day  tmax  tmin
##    <dbl> <dbl> <dbl> <dbl> <dbl>
##  1  2010     1    30  27.8  14.5
##  2  2010     2    11  29.7  13.4
##  3  2010     2     2  27.3  14.4
##  4  2010     2    23  29.9  10.7
##  5  2010     2     3  24.1  14.4
##  6  2010     3    10  34.5  16.8
##  7  2010     3    16  31.1  17.6
##  8  2010     3     5  32.1  14.2
##  9  2010     4    27  36.3  16.7
## 10  2010     5    27  33.2  18.2
## # … with 23 more rows
```
…
## Our tidy data frame


```r
weather_tidy
```

```
## # A tibble: 33 x 3
##    date        tmax  tmin
##    <date>     <dbl> <dbl>
##  1 2010-01-30  27.8  14.5
##  2 2010-02-11  29.7  13.4
##  3 2010-02-02  27.3  14.4
##  4 2010-02-23  29.9  10.7
##  5 2010-02-03  24.1  14.4
##  6 2010-03-10  34.5  16.8
##  7 2010-03-16  31.1  17.6
##  8 2010-03-05  32.1  14.2
##  9 2010-04-27  36.3  16.7
## 10 2010-05-27  33.2  18.2
## # … with 23 more rows
```
…
```r
athletes
```

```
## # A tibble: 202 x 13
##    Sex    Sport    RCC   WCC    Hc    Hg  Ferr   BMI
##    <chr>  <chr>  <dbl> <dbl> <dbl> <dbl> <dbl> <dbl>
##  1 female Netba…  4.56  13.3  42.2  13.6    20  19.2
##  2 female Netba…  4.15   6    38    12.7    59  21.2
##  3 female Netba…  4.16   7.6  37.5  12.3    22  21.4
##  4 female Netba…  4.32   6.4  37.7  12.3    30  21.0
##  5 female Netba…  4.06   5.8  38.7  12.8    78  21.8
##  6 female Netba…  4.12   6.1  36.6  11.8    21  21.4
##  7 female Netba…  4.17   5    37.4  12.7   109  21.5
##  8 female Netba…  3.8    6.6  36.5  12.4   102  24.4
##  9 female Netba…  3.96   5.5  36.3  12.4    71  22.6
## 10 female Netba…  4.44   9.7  41.4  14.1    64  22.8
## # … with 192 more rows, and 5 more variables:
## #   SSF <dbl>, `%Bfat` <dbl>, LBM <dbl>, Ht <dbl>,
## #   Wt <dbl>
```

## Choosing a column


```r
athletes %>% select(Sport)
```

```
## # A tibble: 202 x 1
##    Sport  
##    <chr>  
##  1 Netball
##  2 Netball
##  3 Netball
##  4 Netball
##  5 Netball
##  6 Netball
##  7 Netball
##  8 Netball
##  9 Netball
## 10 Netball
## # … with 192 more rows
```

## Choosing several columns


```r
athletes %>% select(Sport, Hg, BMI)
```

```
## # A tibble: 202 x 3
##    Sport      Hg   BMI
##    <chr>   <dbl> <dbl>
##  1 Netball  13.6  19.2
##  2 Netball  12.7  21.2
##  3 Netball  12.3  21.4
##  4 Netball  12.3  21.0
##  5 Netball  12.8  21.8
##  6 Netball  11.8  21.4
##  7 Netball  12.7  21.5
##  8 Netball  12.4  24.4
##  9 Netball  12.4  22.6
## 10 Netball  14.1  22.8
## # … with 192 more rows
```

## Choosing consecutive columns


```r
athletes %>% select(Sex:WCC)
```

```
## # A tibble: 202 x 4
##    Sex    Sport     RCC   WCC
##    <chr>  <chr>   <dbl> <dbl>
##  1 female Netball  4.56  13.3
##  2 female Netball  4.15   6  
##  3 female Netball  4.16   7.6
##  4 female Netball  4.32   6.4
##  5 female Netball  4.06   5.8
##  6 female Netball  4.12   6.1
##  7 female Netball  4.17   5  
##  8 female Netball  3.8    6.6
##  9 female Netball  3.96   5.5
## 10 female Netball  4.44   9.7
## # … with 192 more rows
```

## Choosing all-but some columns


```r
athletes %>% select(-(RCC:LBM))
```

```
## # A tibble: 202 x 4
##    Sex    Sport      Ht    Wt
##    <chr>  <chr>   <dbl> <dbl>
##  1 female Netball  177.  59.9
##  2 female Netball  173.  63  
##  3 female Netball  176   66.3
##  4 female Netball  170.  60.7
##  5 female Netball  183   72.9
##  6 female Netball  178.  67.9
##  7 female Netball  177.  67.5
##  8 female Netball  174.  74.1
##  9 female Netball  174.  68.2
## 10 female Netball  174.  68.8
## # … with 192 more rows
```
…
## Columns whose names begin with S 


```r
athletes %>% select(starts_with("S"))
```

```
## # A tibble: 202 x 3
##    Sex    Sport     SSF
##    <chr>  <chr>   <dbl>
##  1 female Netball  49  
##  2 female Netball 110. 
##  3 female Netball  89  
##  4 female Netball  98.3
##  5 female Netball 122. 
##  6 female Netball  90.4
##  7 female Netball 107. 
##  8 female Netball 157. 
##  9 female Netball 101. 
## 10 female Netball 126. 
## # … with 192 more rows
```

## Columns whose names end with C

either uppercase or lowercase:


```r
athletes %>% select(ends_with("c"))
```

```
## # A tibble: 202 x 3
##      RCC   WCC    Hc
##    <dbl> <dbl> <dbl>
##  1  4.56  13.3  42.2
##  2  4.15   6    38  
##  3  4.16   7.6  37.5
##  4  4.32   6.4  37.7
##  5  4.06   5.8  38.7
##  6  4.12   6.1  36.6
##  7  4.17   5    37.4
##  8  3.8    6.6  36.5
##  9  3.96   5.5  36.3
## 10  4.44   9.7  41.4
## # … with 192 more rows
```

## Column names containing letter R


```r
athletes %>% select(contains("r"))
```

```
## # A tibble: 202 x 3
##    Sport     RCC  Ferr
##    <chr>   <dbl> <dbl>
##  1 Netball  4.56    20
##  2 Netball  4.15    59
##  3 Netball  4.16    22
##  4 Netball  4.32    30
##  5 Netball  4.06    78
##  6 Netball  4.12    21
##  7 Netball  4.17   109
##  8 Netball  3.8    102
##  9 Netball  3.96    71
## 10 Netball  4.44    64
## # … with 192 more rows
```

## Exactly two characters, ending with T

In regular expression terms, this is `^.t$`:

- `^` means “start of text”
- `.` means “exactly one character, but could be anything”
- `$` means “end of text”.

```r
athletes %>% select(matches("^.t$"))
```

```
## # A tibble: 202 x 2
##       Ht    Wt
##    <dbl> <dbl>
##  1  177.  59.9
##  2  173.  63  
##  3  176   66.3
##  4  170.  60.7
##  5  183   72.9
##  6  178.  67.9
##  7  177.  67.5
##  8  174.  74.1
##  9  174.  68.2
## 10  174.  68.8
## # … with 192 more rows
```
…
## Either/Or


```r
athletes %>% filter(Sport == "Tennis" | RCC > 5)
```

```
## # A tibble: 66 x 13
##    Sex    Sport    RCC   WCC    Hc    Hg  Ferr   BMI
##    <chr>  <chr>  <dbl> <dbl> <dbl> <dbl> <dbl> <dbl>
##  1 female Row     5.02   6.4  44.8  15.2    48  19.8
##  2 female T400m   5.31   9.5  47.1  15.9    29  21.4
##  3 female Field   5.33   9.3  47    15      62  25.3
##  4 female TSprnt  5.16   8.2  45.3  14.7    34  20.3
##  5 female Tennis  4      4.2  36.6  12      57  25.4
##  6 female Tennis  4.4    4    40.8  13.9    73  22.1
##  7 female Tennis  4.38   7.9  39.8  13.5    88  21.2
##  8 female Tennis  4.08   6.6  37.8  12.1   182  20.5
##  9 female Tennis  4.98   6.4  44.8  14.8    80  17.1
## 10 female Tennis  5.16   7.2  44.3  14.5    88  18.3
## # … with 56 more rows, and 5 more variables:
## #   SSF <dbl>, `%Bfat` <dbl>, LBM <dbl>, Ht <dbl>,
## #   Wt <dbl>
```

## Sorting into order


```r
athletes %>% arrange(RCC)
```

```
## # A tibble: 202 x 13
##    Sex    Sport    RCC   WCC    Hc    Hg  Ferr   BMI
##    <chr>  <chr>  <dbl> <dbl> <dbl> <dbl> <dbl> <dbl>
##  1 female Netba…  3.8    6.6  36.5  12.4   102  24.4
##  2 female Netba…  3.9    6.3  35.9  12.1    78  20.1
##  3 female T400m   3.9    6    38.9  13.5    16  19.4
##  4 female Row     3.91   7.3  37.6  12.9    43  22.3
##  5 female Netba…  3.95   6.6  38.4  12.8    33  19.9
##  6 female Row     3.95   3.3  36.9  12.5    40  24.5
##  7 female Netba…  3.96   5.5  36.3  12.4    71  22.6
##  8 female BBall   3.96   7.5  37.5  12.3    60  20.6
##  9 female Tennis  4      4.2  36.6  12      57  25.4
## 10 female Netba…  4.02   9.1  37.7  12.7   107  23.0
## # … with 192 more rows, and 5 more variables:
## #   SSF <dbl>, `%Bfat` <dbl>, LBM <dbl>, Ht <dbl>,
## #   Wt <dbl>
```

## Breaking ties by another variable


```r
athletes %>% arrange(RCC, BMI)
```

```
## # A tibble: 202 x 13
##    Sex    Sport    RCC   WCC    Hc    Hg  Ferr   BMI
##    <chr>  <chr>  <dbl> <dbl> <dbl> <dbl> <dbl> <dbl>
##  1 female Netba…  3.8    6.6  36.5  12.4   102  24.4
##  2 female T400m   3.9    6    38.9  13.5    16  19.4
##  3 female Netba…  3.9    6.3  35.9  12.1    78  20.1
##  4 female Row     3.91   7.3  37.6  12.9    43  22.3
##  5 female Netba…  3.95   6.6  38.4  12.8    33  19.9
##  6 female Row     3.95   3.3  36.9  12.5    40  24.5
##  7 female BBall   3.96   7.5  37.5  12.3    60  20.6
##  8 female Netba…  3.96   5.5  36.3  12.4    71  22.6
##  9 female Tennis  4      4.2  36.6  12      57  25.4
## 10 female Netba…  4.02   9.1  37.7  12.7   107  23.0
## # … with 192 more rows, and 5 more variables:
## #   SSF <dbl>, `%Bfat` <dbl>, LBM <dbl>, Ht <dbl>,
## #   Wt <dbl>
```

## Descending order


```r
athletes %>% arrange(desc(BMI))
```

```
## # A tibble: 202 x 13
##    Sex    Sport   RCC   WCC    Hc    Hg  Ferr   BMI
##    <chr>  <chr> <dbl> <dbl> <dbl> <dbl> <dbl> <dbl>
##  1 male   Field  5.48   6.2  48.2  16.3    94  34.4
##  2 male   Field  4.96   8.3  45.3  15.7   141  33.7
##  3 male   Field  5.48   4.6  49.4  18     132  32.5
##  4 female Field  4.75   7.5  43.8  15.2    90  31.9
##  5 male   Field  5.01   8.9  46    15.9   212  30.2
##  6 male   Field  5.01   8.9  46    15.9   212  30.2
##  7 male   Field  5.09   8.9  46.3  15.4    44  30.0
##  8 female Field  4.58   5.8  42.1  14.7   164  28.6
##  9 female Field  4.51   9    39.7  14.3    36  28.1
## 10 male   WPolo  5.34   6.2  49.8  17.2   143  27.8
## # … with 192 more rows, and 5 more variables:
## #   SSF <dbl>, `%Bfat` <dbl>, LBM <dbl>, Ht <dbl>,
## #   Wt <dbl>
```
…
## Create new variables from old ones


```r
athletes %>%
  mutate(wt_lb = Wt * 2.2) %>%
  select(Sport, Wt, wt_lb)
```

```
## # A tibble: 202 x 3
##    Sport      Wt wt_lb
##    <chr>   <dbl> <dbl>
##  1 Netball  59.9  132.
##  2 Netball  63    139.
##  3 Netball  66.3  146.
##  4 Netball  60.7  134.
##  5 Netball  72.9  160.
##  6 Netball  67.9  149.
##  7 Netball  67.5  148.
##  8 Netball  74.1  163.
##  9 Netball  68.2  150.
## 10 Netball  68.8  151.
## # … with 192 more rows
```
…
  
## Looking things up in another data frame
Recall the tuberculosis data set, tidied: 

```r
tb3
```

```
## # A tibble: 35,750 x 5
##    iso2   year gender age    freq
##    <chr> <dbl> <chr>  <chr> <dbl>
##  1 AD     2005 m      04        0
##  2 AD     2006 m      04        0
##  3 AD     2008 m      04        0
##  4 AE     2006 m      04        0
##  5 AE     2007 m      04        0
##  6 AE     2008 m      04        0
##  7 AG     2007 m      04        0
##  8 AL     2005 m      04        0
##  9 AL     2006 m      04        1
## 10 AL     2007 m      04        0
## # … with 35,740 more rows
```
…
## The country names


```r
country_names
```

```
## # A tibble: 252 x 3
##    Code  Code_UC Country             
##    <chr> <chr>   <chr>               
##  1 ad    AD      Andorra             
##  2 ae    AE      United Arab Emirates
##  3 af    AF      Afghanistan         
##  4 ag    AG      Antigua and Barbuda 
##  5 ai    AI      Anguilla            
##  6 al    AL      Albania             
##  7 am    AM      Armenia             
##  8 an    AN      Netherlands Antilles
##  9 ao    AO      Angola              
## 10 aq    AQ      Antarctica          
## # … with 242 more rows
```

## Looking up country codes
Matching a variable in one data frame to one in another is called a **join**
(database terminology):


```r
tb3 %>% left_join(country_names, by = c("iso2" = "Code_UC"))
```

```
## # A tibble: 35,750 x 7
##    iso2   year gender age    freq Code  Country     
##    <chr> <dbl> <chr>  <chr> <dbl> <chr> <chr>       
##  1 AD     2005 m      04        0 ad    Andorra     
##  2 AD     2006 m      04        0 ad    Andorra     
##  3 AD     2008 m      04        0 ad    Andorra     
##  4 AE     2006 m      04        0 ae    United Arab…
##  5 AE     2007 m      04        0 ae    United Arab…
##  6 AE     2008 m      04        0 ae    United Arab…
##  7 AG     2007 m      04        0 ag    Antigua and…
##  8 AL     2005 m      04        0 al    Albania     
##  9 AL     2006 m      04        1 al    Albania     
## 10 AL     2007 m      04        0 al    Albania     
## # … with 35,740 more rows
```

## Total cases by country



```r
tb3 %>%
  group_by(iso2) %>%
  summarize(cases = sum(freq)) %>%
  left_join(country_names, by = c("iso2" = "Code_UC")) %>%
  select(Country, cases)
```

```
## # A tibble: 213 x 2
##    Country               cases
##    <chr>                 <dbl>
##  1 <NA>                  58581
##  2 Andorra                  64
##  3 United Arab Emirates    487
##  4 Afghanistan           80005
##  5 Antigua and Barbuda      21
##  6 Anguilla                  1
##  7 Albania                2467
##  8 Armenia                6757
##  9 Netherlands Antilles     81
## 10 Angola               195512
## # … with 203 more rows
```

## or even sorted in order


```r
tb3 %>%
  group_by(iso2) %>%
  summarize(cases = sum(freq)) %>%
  left_join(country_names, by = c("iso2" = "Code_UC")) %>%
  select(Country, cases) %>%
  arrange(desc(cases))
```

```
## # A tibble: 213 x 2
##    Country        cases
##    <chr>          <dbl>
##  1 China        4065174
##  2 India        3966169
##  3 Indonesia    1129015
##  4 South Africa  900349
##  5 Bangladesh    758008
##  6 Vietnam       709695
##  7 <NA>          603095
##  8 Philippines   490040
##  9 Brazil        440609
## 10 Kenya         431523
## # … with 203 more rows
```
…
## The data



```r
windmill
```

```
## # A tibble: 25 x 2
##    wind_velocity DC_output
##            <dbl>     <dbl>
##  1          5        1.58 
##  2          6        1.82 
##  3          3.4      1.06 
##  4          2.7      0.5  
##  5         10        2.24 
##  6          9.7      2.39 
##  7          9.55     2.29 
##  8          3.05     0.558
##  9          8.15     2.17 
## 10          6.2      1.87 
## # … with 15 more rows
```
…
## What’s in `w2`


```r
w2
```

```
## # A tibble: 25 x 5
##    wind_velocity DC_output linear parabola asymptote
##            <dbl>     <dbl>  <dbl>    <dbl>     <dbl>
##  1          5        1.58   1.34     1.51      1.59 
##  2          6        1.82   1.58     1.81      1.82 
##  3          3.4      1.06   0.951    0.861     0.939
##  4          2.7      0.5    0.782    0.518     0.411
##  5         10        2.24   2.54     2.26      2.29 
##  6          9.7      2.39   2.47     2.27      2.26 
##  7          9.55     2.29   2.43     2.27      2.25 
##  8          3.05     0.558  0.866    0.694     0.705
##  9          8.15     2.17   2.10     2.20      2.13 
## 10          6.2      1.87   1.63     1.86      1.86 
## # … with 15 more rows
```
…
